{
  "title": "Deregulate Home-Grown Hemp",
  "description": "Remove Licensing Restriction for Non-Commercial Cultivation of Hemp in the UK",
  "body": "The UK has recently legalised CBD as a food-supplement, and is enjoying a wave\nof popularity for its anxiolytic properties, along with other reported health\nbenefits.\n\nDespite this step forward, the cultivation of hemp (or low-THC cannabis) remains restricted to license owners, which applies even to small scale growing for personal use.\n\nAmong the requirements is a licensing fee exceeding £500 - clearly excessive\nfor individuals only meaning to grow CBD for themselves in their own gardens.\n\nThe home-office should recognise the hypocrisy of admitting the medical\nbenefits and minimal harms of low-THC cannabis, yet still maintaining\ndraconian regulation of simple home-gardening of this incredibly useful and\nincreasingly popular plant.",
  "background_image": "/media/cannabis_plants.jpeg"
}