{
  "title": "Mental health crisis",
  "description": "Lots of people are very unhappy",
  "body": "Conventional solutions to human misery have failed.\nMaterial wealth and comfort is readily available to citizens of the West, and yet these same citizens are often deeply unhappy.\nSpiritual solutions are numerous, but are often obscure and difficult to reproduce in individual cases.\n\nThe solution must be falsifiable, and reproduced through consistent steps.\nA logical progression of ideas and experiences must be established, through which individuals may consistently arrive at conclusions whose acceptance yields profound benefits, including a reduction in fear, inhibition, death-anxiety, grief and pain-sensitivity.\n\nCurrent clinical approaches are limited in various ways.\nMost notably, diagnostic criteria are seemingly arbitrary - indicated by prevalence of co-morbidity, individual differences, and a lack of reliable biomarkers.\nSecondly, conventional treatments are largely ineffective, costly to implement, and greatly dependent on the ingenuity and competence of the practitioner.\nIn general, no reliable mechanisms for \"healthy\" _or_ \"unhealthy\" psychological functioning have been determined, so treatment approaches are consequently dubious - whatever improvements are obtained (sometimes only through great effort, and risks via side-effects/dependence if medicated) may constitute nothing more than the implementation of a semi-effective coping mechanism, treating aspects of symptoms without resolving any fundamental problem.\n\nConsequently, any alternative theories or treatments for mental distress have a high chance of exceeding the effectiveness of those currently in use, particularly if they can be distributed and accessed more universally, at lower cost to individuals or health services.\n\nOne such alternative may be found in the psychoanalytic tradition - which is far more conceptually complete and specific in its predictions than modern cognitive-behavioural approaches, which depend on vague definitions of mal-adaption, and fixate on surface level phenomena in an albeit admirable effort to remain scientific.\n\nCommon mental conflicts at the heart of many neurotic and possibly psychotic conditions may be speculated - the conflict of cultural ideals like love, friendship and purpose with the objective reality of humans as selfish animals, who developed social and moral faculties as a means to evolutionary ends.\nAnother central issue is the conflict of conventional human expectations of purpose, meaning and other values being universal and objective, despite their scientifically determinable contextuality and temporary lifespan.\nPeople are fundamentally unwilling to accept beloved values for what physical law suggests them to be - a contextual, arbitrary, and temporary configuration of physical matter - mere information, only present and meaningful within the brain of the individual who perceives it.\nThe lack of objectivity and universality of human values induces a fundamental conflict with the human desire to be understood and significant, as well as conflicting with the conventional understanding of \"purpose\" as being necessarily long-lasting, with some clear end goal in mind.\nThe perception of life as \"goal-oriented\" - as enshrined by abrahamic religions in the end-goal of heaven - conflicts with innate human nature, as desire is always present, and never satisfied - those few humans who do get what they want still want more, and rarely obtain lasting contentment.",
  "background_image": "/media/buddha.jpeg"
}