<?xml version="1.0" encoding="UTF-8" standalone="no"?>
<!-- Created with Inkscape (http://www.inkscape.org/) -->

<svg
   xmlns:dc="http://purl.org/dc/elements/1.1/"
   xmlns:cc="http://creativecommons.org/ns#"
   xmlns:rdf="http://www.w3.org/1999/02/22-rdf-syntax-ns#"
   xmlns:svg="http://www.w3.org/2000/svg"
   xmlns="http://www.w3.org/2000/svg"
   xmlns:sodipodi="http://sodipodi.sourceforge.net/DTD/sodipodi-0.dtd"
   xmlns:inkscape="http://www.inkscape.org/namespaces/inkscape"
   width="13mm"
   height="13mm"
   viewBox="0 0 13 13"
   version="1.1"
   id="svg8"
   sodipodi:docname="logo.svg"
   inkscape:version="0.92.4 5da689c313, 2019-01-14">
  <defs
     id="defs2" />
  <sodipodi:namedview
     id="base"
     pagecolor="#ffffff"
     bordercolor="#666666"
     borderopacity="1.0"
     inkscape:pageopacity="0.0"
     inkscape:pageshadow="2"
     inkscape:zoom="7.9195959"
     inkscape:cx="-33.3232"
     inkscape:cy="19.828865"
     inkscape:document-units="mm"
     inkscape:current-layer="layer1"
     showgrid="false"
     inkscape:snap-text-baseline="false"
     inkscape:snap-bbox="true"
     inkscape:bbox-nodes="true"
     inkscape:snap-bbox-edge-midpoints="true"
     inkscape:snap-bbox-midpoints="true"
     inkscape:snap-page="true"
     inkscape:window-width="2560"
     inkscape:window-height="1058"
     inkscape:window-x="0"
     inkscape:window-y="0"
     inkscape:window-maximized="1"
     fit-margin-top="0"
     fit-margin-left="0"
     fit-margin-right="0"
     fit-margin-bottom="0" />
  <metadata
     id="metadata5">
    <rdf:RDF>
      <cc:Work
         rdf:about="">
        <dc:format>image/svg+xml</dc:format>
        <dc:type
           rdf:resource="http://purl.org/dc/dcmitype/StillImage" />
        <dc:title></dc:title>
      </cc:Work>
    </rdf:RDF>
  </metadata>
  <g
     inkscape:groupmode="layer"
     id="layer2"
     inkscape:label="bg"
     transform="translate(-94.743126,-126.71696)">
    <rect
       style="fill:#1e232b;fill-opacity:1;stroke-width:0.26458332"
       id="rect5257"
       width="13"
       height="13"
       x="94.743126"
       y="126.71696"
       ry="2.5565815" />
  </g>
  <g
     inkscape:label="Layer 1"
     inkscape:groupmode="layer"
     id="layer1"
     transform="translate(-94.743126,-126.71696)">
    <text
       xml:space="preserve"
       style="font-style:normal;font-variant:normal;font-weight:normal;font-stretch:normal;font-size:10.58333302px;line-height:1.25;font-family:serif;-inkscape-font-specification:serif;letter-spacing:0px;word-spacing:0px;fill:#d2d2c8;fill-opacity:1;stroke:none;stroke-width:0.26458332"
       x="102.00632"
       y="136.00575"
       id="text12"><tspan
         sodipodi:role="line"
         id="tspan10"
         x="102.00632"
         y="145.36952"
         style="fill:#d2d2c8;fill-opacity:1;stroke-width:0.26458332" /><tspan
         sodipodi:role="line"
         x="102.00632"
         y="158.59869"
         style="fill:#d2d2c8;fill-opacity:1;stroke-width:0.26458332"
         id="tspan14" /></text>
    <g
       aria-label="T
"
       transform="scale(1.0380935,0.96330437)"
       style="font-style:normal;font-variant:normal;font-weight:normal;font-stretch:normal;font-size:15.04188633px;line-height:1.25;font-family:'Bitstream Vera Serif';-inkscape-font-specification:'Bitstream Vera Serif';letter-spacing:0px;word-spacing:0px;fill:#d2d2c8;fill-opacity:1;stroke:none;stroke-width:0.37604713"
       id="text12-3">
      <path
         d="m 99.919602,142.96217 v 0.39109 h -4.78332 v -0.39109 h 0.300838 c 0.48134,0 0.902513,-0.18051 1.098058,-0.4663 0.180502,-0.25571 0.225628,-0.49638 0.225628,-1.27856 v -7.31036 h -0.977723 c -1.534272,0 -2.07578,0.42117 -2.181073,1.69973 h -0.391089 l 0.165461,-2.37661 h 8.303118 l 0.16546,2.37661 h -0.37604 c -0.13538,-1.30864 -0.60168,-1.69973 -2.060742,-1.69973 h -1.1131 v 7.31036 c 0,0.79722 0.03008,1.0078 0.210587,1.27856 0.210586,0.28579 0.616717,0.4663 1.113099,0.4663 z"
         style="font-style:normal;font-variant:normal;font-weight:normal;font-stretch:normal;font-family:'Standard Symbols PS';-inkscape-font-specification:'Standard Symbols PS';fill:#d2d2c8;fill-opacity:1;stroke-width:0.37604713"
         id="path5259" />
    </g>
    <g
       aria-label="T
"
       transform="scale(1.0596297,0.94372589)"
       style="font-style:normal;font-variant:normal;font-weight:normal;font-stretch:normal;font-size:10.2210474px;line-height:1.25;font-family:'Bitstream Vera Serif';-inkscape-font-specification:'Bitstream Vera Serif';letter-spacing:0px;word-spacing:0px;fill:#d2d2c8;fill-opacity:1;stroke:none;stroke-width:0.25552616"
       id="text12-3-8">
      <path
         d="m 97.170906,146.06149 v 0.26575 h -3.250293 v -0.26575 h 0.204421 c 0.327074,0 0.613263,-0.12265 0.746136,-0.31685 0.122653,-0.17376 0.153316,-0.33729 0.153316,-0.86879 v -4.96743 h -0.664368 c -1.042547,0 -1.410504,0.28619 -1.482052,1.15498 h -0.265747 l 0.112431,-1.61492 h 5.642019 l 0.112431,1.61492 h -0.255526 c -0.09199,-0.88923 -0.408842,-1.15498 -1.400283,-1.15498 h -0.756358 v 4.96743 c 0,0.54172 0.02044,0.68481 0.143095,0.86879 0.143094,0.1942 0.419063,0.31685 0.756357,0.31685 z"
         style="font-style:normal;font-variant:normal;font-weight:normal;font-stretch:normal;font-family:'Standard Symbols PS';-inkscape-font-specification:'Standard Symbols PS';fill:#d2d2c8;fill-opacity:1;stroke-width:0.25552616"
         id="path5262" />
    </g>
  </g>
</svg>
